{
  "name": "timeout",
  "do": "<ul><li>When there is a server-side timeout.</li><li>When the time to performn an operation has passed.</li></ul>",
  "dont": "<ul><li>To represent any kind of timing.</li></ul>",
  "tags": ["timeout", "interruption"]
}
