<svg xmlns="http://www.w3.org/2000/svg" width="273.075" height="223.117" viewBox="0 0 273.075 223.117">
  <g id="Group_208" data-name="Group 208" transform="translate(-0.035 -0.03)">
    <g id="Group_192" data-name="Group 192">
      <path id="Path_931" data-name="Path 931" d="M120.8,154a31.245,31.245,0,0,1-1.5,9.7,47.074,47.074,0,0,1-2.1,5.2c-.9,1.4-1.9,3-3,4.7-4.5,7.5-10,18.5-11.8,30.3H75c-1.8-11.8-7.3-22.8-11.8-30.3-1.1-1.8-2.1-3.4-3-4.7a23.6,23.6,0,0,1-2.1-5.2,30.789,30.789,0,0,1-1.5-9.7,32.115,32.115,0,0,1,32-32.1h.3A32.1,32.1,0,0,1,120.8,154Z" fill="#b3e8f6"/>
      <path id="Path_932" data-name="Path 932" d="M88.7,121.9h-.3a29.57,29.57,0,0,0-5.2.5c23.8,16.8,18.5,50.4,10.1,73.9-.1.3-3.9,6.5-4.7,7.7,2.2.6,11.3,0,13.7,0,1.8-11.8,7.3-22.8,11.8-30.3,1.1-1.8,2.1-3.4,3-4.7a23.6,23.6,0,0,0,2.1-5.2,30.789,30.789,0,0,0,1.5-9.7A32.009,32.009,0,0,0,88.7,121.9Z" fill="#80d9f1"/>
      <path id="Path_933" data-name="Path 933" d="M62.8,150.2h-.1a1.244,1.244,0,0,1-1.1-1.4c1.7-16,16.5-21.5,17.1-21.7a1.235,1.235,0,0,1,.9,2.3c-.2.1-14,5.2-15.5,19.6A1.381,1.381,0,0,1,62.8,150.2Z" fill="#fff"/>
      <line id="Line_24" data-name="Line 24" x1="12.2" y1="50.9" transform="translate(70.8 150.6)" fill="none" stroke="#686565" stroke-linecap="round" stroke-miterlimit="10" stroke-width="0.985"/>
      <line id="Line_25" data-name="Line 25" x1="12.2" y2="50.9" transform="translate(94.2 151.7)" fill="none" stroke="#686565" stroke-linecap="round" stroke-miterlimit="10" stroke-width="0.985"/>
      <path id="Path_934" data-name="Path 934" d="M70.8,150.6l4.6,4.4,7.8-7,6.6,9.8,6.1-6.6,3.5,4.8,3.4-5.6,3.6,1.5" fill="none" stroke="#686565" stroke-miterlimit="10" stroke-width="0.493"/>
      <path id="Path_935" data-name="Path 935" d="M120.8,154a31.245,31.245,0,0,1-1.5,9.7,47.074,47.074,0,0,1-2.1,5.2c-.9,1.4-1.9,3-3,4.7-4.5,7.5-10,18.5-11.8,30.3H75c-1.8-11.8-7.3-22.8-11.8-30.3-1.1-1.8-2.1-3.4-3-4.7a23.6,23.6,0,0,1-2.1-5.2,30.789,30.789,0,0,1-1.5-9.7,32.115,32.115,0,0,1,32-32.1h.3A32.1,32.1,0,0,1,120.8,154Z" fill="none" stroke="#008acf" stroke-linecap="round" stroke-miterlimit="10" stroke-width="1.786" stroke-dasharray="31.597 6.319 63.195 3.16"/>
      <g id="Group_190" data-name="Group 190">
        <path id="Path_936" data-name="Path 936" d="M75.7,201.6a2.3,2.3,0,0,0,0,4.6H90.9l1.7-4.6Z" fill="#b6b4b4"/>
        <path id="Path_937" data-name="Path 937" d="M101.5,201.6H92.6l-1.7,4.6h10.6a2.263,2.263,0,0,0,2.3-2.3A2.2,2.2,0,0,0,101.5,201.6Z" fill="#a6a4a4"/>
        <path id="Path_938" data-name="Path 938" d="M75.7,207.1a2.263,2.263,0,0,0-2.3,2.3h0a2.263,2.263,0,0,0,2.3,2.3H88.8l1.7-4.6Z" fill="#b6b4b4"/>
        <path id="Path_939" data-name="Path 939" d="M101.5,207.1h-11l-1.7,4.6h12.8a2.263,2.263,0,0,0,2.3-2.3h0A2.416,2.416,0,0,0,101.5,207.1Z" fill="#a6a4a4"/>
        <path id="Path_940" data-name="Path 940" d="M79.1,212.7a2.3,2.3,0,0,0,0,4.6h7.6l1.7-4.6Z" fill="#b6b4b4"/>
        <path id="Path_941" data-name="Path 941" d="M98.2,212.7H88.5l-1.7,4.6H98.3a2.263,2.263,0,0,0,2.3-2.3A2.568,2.568,0,0,0,98.2,212.7Z" fill="#a6a4a4"/>
        <path id="Path_942" data-name="Path 942" d="M81,218.3v.1a3.8,3.8,0,0,0,3.8,3.8l1.5-3.9H81Z" fill="#b6b4b4"/>
        <path id="Path_943" data-name="Path 943" d="M96.8,218.3H86.3l-1.5,3.9H93a3.8,3.8,0,0,0,3.8-3.8Z" fill="#a6a4a4"/>
      </g>
      <g id="Group_191" data-name="Group 191">
        <path id="Path_944" data-name="Path 944" d="M101.5,206.2H75.7a2.263,2.263,0,0,1-2.3-2.3h0a2.263,2.263,0,0,1,2.3-2.3h25.8a2.263,2.263,0,0,1,2.3,2.3h0A2.262,2.262,0,0,1,101.5,206.2Z" fill="none" stroke="#686565" stroke-linecap="round" stroke-linejoin="round" stroke-miterlimit="10" stroke-width="0.632" stroke-dasharray="31.597 2.212 63.195 3.16"/>
        <path id="Path_945" data-name="Path 945" d="M101.5,211.8H75.7a2.263,2.263,0,0,1-2.3-2.3h0a2.263,2.263,0,0,1,2.3-2.3h25.8a2.263,2.263,0,0,1,2.3,2.3h0A2.262,2.262,0,0,1,101.5,211.8Z" fill="none" stroke="#686565" stroke-linecap="round" stroke-linejoin="round" stroke-miterlimit="10" stroke-width="0.632" stroke-dasharray="31.597 2.212 63.195 3.16"/>
        <path id="Path_946" data-name="Path 946" d="M98.2,217.3H79.1a2.263,2.263,0,0,1-2.3-2.3h0a2.263,2.263,0,0,1,2.3-2.3H98.2a2.263,2.263,0,0,1,2.3,2.3h0A2.326,2.326,0,0,1,98.2,217.3Z" fill="none" stroke="#686565" stroke-linecap="round" stroke-linejoin="round" stroke-miterlimit="10" stroke-width="0.632" stroke-dasharray="31.597 2.212 63.195 3.16"/>
        <path id="Path_947" data-name="Path 947" d="M81,218.3v.1a3.8,3.8,0,0,0,3.8,3.8H93a3.8,3.8,0,0,0,3.8-3.8v-.1Z" fill="none" stroke="#686565" stroke-linecap="round" stroke-linejoin="round" stroke-miterlimit="10" stroke-width="0.632" stroke-dasharray="31.597 2.212 63.195 3.16"/>
      </g>
    </g>
    <g id="Group_195" data-name="Group 195">
      <path id="Path_948" data-name="Path 948" d="M191.9,172.6a18.9,18.9,0,0,1-1,6.3,20.25,20.25,0,0,1-1.4,3.4c-.6.9-1.3,1.9-2,3.1-3,4.9-6.5,12-7.7,19.7H162c-1.2-7.7-4.7-14.8-7.7-19.7-.7-1.2-1.4-2.2-2-3.1a20.249,20.249,0,0,1-1.4-3.4,21.852,21.852,0,0,1-1-6.3,20.934,20.934,0,0,1,20.8-20.9h.1A20.935,20.935,0,0,1,191.9,172.6Z" fill="#b3e8f6"/>
      <path id="Path_949" data-name="Path 949" d="M171,151.7h-.1a18.7,18.7,0,0,0-3.4.3c15.5,11,12,32.8,6.6,48.1-.1.2-2.5,4.2-3,5,1.4.4,7.4,0,8.9,0,1.2-7.7,4.7-14.8,7.7-19.7.7-1.2,1.4-2.2,2-3.1a20.249,20.249,0,0,0,1.4-3.4,21.852,21.852,0,0,0,1-6.3A21.193,21.193,0,0,0,171,151.7Z" fill="#80d9f1"/>
      <path id="Path_950" data-name="Path 950" d="M154.2,170.1h0a.876.876,0,0,1-.8-.9c1.1-10.4,10.7-14,11.1-14.1a.791.791,0,0,1,.5,1.5c-.1,0-9.1,3.4-10.1,12.8A.684.684,0,0,1,154.2,170.1Z" fill="#fff"/>
      <line id="Line_26" data-name="Line 26" x1="7.9" y1="33.1" transform="translate(159.4 170.4)" fill="none" stroke="#686565" stroke-linecap="round" stroke-miterlimit="10" stroke-width="0.641"/>
      <line id="Line_27" data-name="Line 27" x1="8" y2="33.2" transform="translate(174.6 171.1)" fill="none" stroke="#686565" stroke-linecap="round" stroke-miterlimit="10" stroke-width="0.641"/>
      <path id="Path_951" data-name="Path 951" d="M159.4,170.4l3,2.9,5-4.6,4.4,6.4,3.9-4.3,2.3,3.1,2.2-3.6,2.3,1" fill="none" stroke="#686565" stroke-miterlimit="10" stroke-width="0.32"/>
      <path id="Path_952" data-name="Path 952" d="M191.9,172.6a18.9,18.9,0,0,1-1,6.3,20.25,20.25,0,0,1-1.4,3.4c-.6.9-1.3,1.9-2,3.1-3,4.9-6.5,12-7.7,19.7H162c-1.2-7.7-4.7-14.8-7.7-19.7-.7-1.2-1.4-2.2-2-3.1a20.249,20.249,0,0,1-1.4-3.4,21.852,21.852,0,0,1-1-6.3,20.934,20.934,0,0,1,20.8-20.9h.1A20.935,20.935,0,0,1,191.9,172.6Z" fill="none" stroke="#008acf" stroke-linecap="round" stroke-miterlimit="10" stroke-width="1.34" stroke-dasharray="20.559 4.112 41.119 2.056"/>
      <g id="Group_193" data-name="Group 193">
        <path id="Path_953" data-name="Path 953" d="M162.6,203.6a1.5,1.5,0,0,0,0,3h9.9l1.1-3Z" fill="#b6b4b4"/>
        <path id="Path_954" data-name="Path 954" d="M179.4,203.6h-5.8l-1.1,3h6.9a1.5,1.5,0,0,0,0-3Z" fill="#a6a4a4"/>
        <path id="Path_955" data-name="Path 955" d="M162.6,207.2a1.538,1.538,0,0,0-1.5,1.5h0a1.538,1.538,0,0,0,1.5,1.5h8.5l1.1-3Z" fill="#b6b4b4"/>
        <path id="Path_956" data-name="Path 956" d="M179.4,207.2h-7.2l-1.1,3h8.3a1.538,1.538,0,0,0,1.5-1.5h0A1.538,1.538,0,0,0,179.4,207.2Z" fill="#a6a4a4"/>
        <path id="Path_957" data-name="Path 957" d="M164.8,210.8a1.5,1.5,0,0,0,0,3h4.9l1.1-3Z" fill="#b6b4b4"/>
        <path id="Path_958" data-name="Path 958" d="M177.2,210.8h-6.3l-1.1,3h7.5a1.538,1.538,0,0,0,1.5-1.5A1.63,1.63,0,0,0,177.2,210.8Z" fill="#a6a4a4"/>
        <path id="Path_959" data-name="Path 959" d="M166.1,214.4c0,.1-.1.1,0,0a2.562,2.562,0,0,0,2.5,2.6l1-2.6Z" fill="#b6b4b4"/>
        <path id="Path_960" data-name="Path 960" d="M176.3,214.4h-6.8l-1,2.6h5.3a2.5,2.5,0,0,0,2.5-2.6Z" fill="#a6a4a4"/>
      </g>
      <g id="Group_194" data-name="Group 194">
        <path id="Path_961" data-name="Path 961" d="M179.4,206.6H162.6a1.538,1.538,0,0,1-1.5-1.5h0a1.538,1.538,0,0,1,1.5-1.5h16.8a1.538,1.538,0,0,1,1.5,1.5h0A1.538,1.538,0,0,1,179.4,206.6Z" fill="none" stroke="#686565" stroke-linecap="round" stroke-linejoin="round" stroke-miterlimit="10" stroke-width="0.411" stroke-dasharray="20.559 1.439 41.119 2.056"/>
        <path id="Path_962" data-name="Path 962" d="M179.4,210.2H162.6a1.538,1.538,0,0,1-1.5-1.5h0a1.538,1.538,0,0,1,1.5-1.5h16.8a1.538,1.538,0,0,1,1.5,1.5h0A1.538,1.538,0,0,1,179.4,210.2Z" fill="none" stroke="#686565" stroke-linecap="round" stroke-linejoin="round" stroke-miterlimit="10" stroke-width="0.411" stroke-dasharray="20.559 1.439 41.119 2.056"/>
        <path id="Path_963" data-name="Path 963" d="M177.2,213.8H164.8a1.538,1.538,0,0,1-1.5-1.5h0a1.538,1.538,0,0,1,1.5-1.5h12.4a1.538,1.538,0,0,1,1.5,1.5h0A1.538,1.538,0,0,1,177.2,213.8Z" fill="none" stroke="#686565" stroke-linecap="round" stroke-linejoin="round" stroke-miterlimit="10" stroke-width="0.411" stroke-dasharray="20.559 1.439 41.119 2.056"/>
        <path id="Path_964" data-name="Path 964" d="M166.1,214.4c0,.1-.1.1,0,0a2.5,2.5,0,0,0,2.5,2.6h5.3a2.476,2.476,0,0,0,2.5-2.5v-.1Z" fill="none" stroke="#686565" stroke-linecap="round" stroke-linejoin="round" stroke-miterlimit="10" stroke-width="0.411" stroke-dasharray="20.559 1.439 41.119 2.056"/>
      </g>
    </g>
    <g id="Group_198" data-name="Group 198">
      <path id="Path_965" data-name="Path 965" d="M176.3,126.2a43.5,43.5,0,0,1-2.1,13.6,46.639,46.639,0,0,1-3,7.3c-1.3,1.9-2.8,4.2-4.3,6.7-6.4,10.6-14.1,26.2-16.7,42.9H111.6c-2.6-16.7-10.3-32.3-16.7-42.9-1.5-2.5-3-4.8-4.3-6.7a46.639,46.639,0,0,1-3-7.3,43.961,43.961,0,0,1-2.1-13.6,45.3,45.3,0,0,1,45.2-45.3h.4A45.3,45.3,0,0,1,176.3,126.2Z" fill="#80d9f1"/>
      <path id="Path_966" data-name="Path 966" d="M130.9,80.9h-.4a45.243,45.243,0,0,0-7.4.6c33.6,23.8,26.1,71.2,14.3,104.4-.2.5-5.5,9.2-6.6,10.8,3.1.8,16,0,19.3,0,2.6-16.7,10.3-32.3,16.7-42.9,1.5-2.5,3-4.8,4.3-6.7a46.639,46.639,0,0,0,3-7.3,43.962,43.962,0,0,0,2.1-13.6A45.2,45.2,0,0,0,130.9,80.9Z" fill="#4dc9eb"/>
      <path id="Path_967" data-name="Path 967" d="M94.4,120.9h-.2a1.692,1.692,0,0,1-1.5-1.9c2.4-22.6,23.3-30.3,24.2-30.7a1.739,1.739,0,1,1,1.1,3.3c-.3.1-19.8,7.4-21.9,27.8A1.811,1.811,0,0,1,94.4,120.9Z" fill="#fff"/>
      <line id="Line_28" data-name="Line 28" x1="17.2" y1="72" transform="translate(105.7 121.4)" fill="none" stroke="#686565" stroke-linecap="round" stroke-miterlimit="10" stroke-width="1.392"/>
      <line id="Line_29" data-name="Line 29" x1="17.3" y2="72" transform="translate(138.7 123)" fill="none" stroke="#686565" stroke-linecap="round" stroke-miterlimit="10" stroke-width="1.392"/>
      <path id="Path_968" data-name="Path 968" d="M105.7,121.4l6.5,6.3,10.9-9.9,9.4,13.9,8.6-9.4,4.9,6.8,4.8-7.9,5.1,2.1" fill="none" stroke="#686565" stroke-miterlimit="10" stroke-width="0.696"/>
      <path id="Path_969" data-name="Path 969" d="M176.3,126.2a43.5,43.5,0,0,1-2.1,13.6,46.639,46.639,0,0,1-3,7.3c-1.3,1.9-2.8,4.2-4.3,6.7-6.4,10.6-14.1,26.2-16.7,42.9H111.6c-2.6-16.7-10.3-32.3-16.7-42.9-1.5-2.5-3-4.8-4.3-6.7a46.639,46.639,0,0,1-3-7.3,43.961,43.961,0,0,1-2.1-13.6,45.3,45.3,0,0,1,45.2-45.3h.4A45.3,45.3,0,0,1,176.3,126.2Z" fill="none" stroke="#008acf" stroke-linecap="round" stroke-miterlimit="10" stroke-width="2.233" stroke-dasharray="44.659 8.932 89.317 4.466"/>
      <g id="Group_196" data-name="Group 196">
        <path id="Path_970" data-name="Path 970" d="M112.6,193.5a3.3,3.3,0,1,0,0,6.6H134l2.5-6.5H112.6Z" fill="#b6b4b4"/>
        <path id="Path_971" data-name="Path 971" d="M149.1,193.5H136.5L134,200h15a3.329,3.329,0,0,0,3.3-3.3A3.159,3.159,0,0,0,149.1,193.5Z" fill="#a6a4a4"/>
        <path id="Path_972" data-name="Path 972" d="M112.6,201.4a3.329,3.329,0,0,0-3.3,3.3h0a3.329,3.329,0,0,0,3.3,3.3h18.5l2.5-6.5h-21Z" fill="#b6b4b4"/>
        <path id="Path_973" data-name="Path 973" d="M149.1,201.4H133.5l-2.5,6.5h18a3.329,3.329,0,0,0,3.3-3.3h0A3.1,3.1,0,0,0,149.1,201.4Z" fill="#a6a4a4"/>
        <path id="Path_974" data-name="Path 974" d="M117.4,209.2a3.3,3.3,0,0,0,0,6.6h10.7l2.5-6.5H117.4Z" fill="#b6b4b4"/>
        <path id="Path_975" data-name="Path 975" d="M144.3,209.2H130.5l-2.5,6.5h16.2a3.329,3.329,0,0,0,3.3-3.3A3.158,3.158,0,0,0,144.3,209.2Z" fill="#a6a4a4"/>
        <path id="Path_976" data-name="Path 976" d="M120.1,217.1v.2a5.378,5.378,0,0,0,5.4,5.4l2.1-5.6h-7.5Z" fill="#b6b4b4"/>
        <path id="Path_977" data-name="Path 977" d="M142.4,217.1H127.6l-2.1,5.6H137a5.378,5.378,0,0,0,5.4-5.4Z" fill="#a6a4a4"/>
      </g>
      <g id="Group_197" data-name="Group 197">
        <path id="Path_978" data-name="Path 978" d="M149.1,200H112.6a3.329,3.329,0,0,1-3.3-3.3h0a3.329,3.329,0,0,1,3.3-3.3h36.5a3.329,3.329,0,0,1,3.3,3.3h0A3.329,3.329,0,0,1,149.1,200Z" fill="none" stroke="#686565" stroke-linecap="round" stroke-linejoin="round" stroke-miterlimit="10" stroke-width="0.893" stroke-dasharray="44.659 3.126 89.317 4.466"/>
        <path id="Path_979" data-name="Path 979" d="M149.1,207.9H112.6a3.329,3.329,0,0,1-3.3-3.3h0a3.329,3.329,0,0,1,3.3-3.3h36.5a3.329,3.329,0,0,1,3.3,3.3h0A3.329,3.329,0,0,1,149.1,207.9Z" fill="none" stroke="#686565" stroke-linecap="round" stroke-linejoin="round" stroke-miterlimit="10" stroke-width="0.893" stroke-dasharray="44.659 3.126 89.317 4.466"/>
        <path id="Path_980" data-name="Path 980" d="M144.3,215.8h-27a3.329,3.329,0,0,1-3.3-3.3h0a3.329,3.329,0,0,1,3.3-3.3h27a3.329,3.329,0,0,1,3.3,3.3h0A3.329,3.329,0,0,1,144.3,215.8Z" fill="none" stroke="#686565" stroke-linecap="round" stroke-linejoin="round" stroke-miterlimit="10" stroke-width="0.893" stroke-dasharray="44.659 3.126 89.317 4.466"/>
        <path id="Path_981" data-name="Path 981" d="M120.1,217.1v.2a5.378,5.378,0,0,0,5.4,5.4H137a5.378,5.378,0,0,0,5.4-5.4v-.2Z" fill="none" stroke="#686565" stroke-linecap="round" stroke-linejoin="round" stroke-miterlimit="10" stroke-width="0.893" stroke-dasharray="44.659 3.126 89.317 4.466"/>
      </g>
    </g>
    <g id="divider_tool_1_">
      <path id="Path_982" data-name="Path 982" d="M211.3,73.4,198.8,57.6c-.1-.2-.1-.4.1-.5l.3-.2c.2-.1.4-.1.5.1l12.5,15.8c.1.2.1.4-.1.5l-.3.2A.348.348,0,0,1,211.3,73.4Z" fill="#00b2e2" stroke="#008acf" stroke-linecap="round" stroke-linejoin="round" stroke-miterlimit="10" stroke-width="0.447" stroke-dasharray="89.317 3.271 93.452 4.673"/>
      <path id="Path_983" data-name="Path 983" d="M217.7,55.2l1.1-3.6a.9.9,0,0,0-.5.1L189.1,63.6a2.711,2.711,0,0,0-3.1.1,2.748,2.748,0,0,0-1,1.6l-3.4,1.4a1.475,1.475,0,0,0-.9,1l-5.2,3.2,6.1-1.5a2.045,2.045,0,0,0,1.1,0L186,68a2.7,2.7,0,0,0,3.2,0,2.533,2.533,0,0,0,1-1.7ZM186.4,67a1.71,1.71,0,1,1,2.4.3A1.716,1.716,0,0,1,186.4,67Z" fill="#00b2e2" stroke="#008acf" stroke-linecap="round" stroke-linejoin="round" stroke-miterlimit="10" stroke-width="0.447" stroke-dasharray="89.317 3.271 93.452 4.673"/>
      <path id="Path_984" data-name="Path 984" d="M200.9,79.5a3.077,3.077,0,0,0-1.9.6,2.969,2.969,0,0,0-.8,3.2l-2.1,2.9a2.016,2.016,0,0,0-.3,1.1L193,92.9l4.3-4.3a1.425,1.425,0,0,0,1.2-.6l2.1-3a3,3,0,0,0,1.8-.6,2.7,2.7,0,0,0,.8-3l18.3-25.6a.764.764,0,0,0,.2-.5l-3.7.3Zm-1.2,1.4a1.7,1.7,0,1,1-.2,2.4A1.727,1.727,0,0,1,199.7,80.9Z" fill="#00b2e2" stroke="#008acf" stroke-linecap="round" stroke-linejoin="round" stroke-miterlimit="10" stroke-width="0.447" stroke-dasharray="89.317 3.271 93.452 4.673"/>
      <path id="Path_985" data-name="Path 985" d="M228.4,47.3a7.53,7.53,0,0,0-10.7-1.2,7.756,7.756,0,0,0-2.9,6.4l1.5-1.2a6.146,6.146,0,1,1,4.9,6.8l-1.4,1.1a7.647,7.647,0,0,0,8.6-11.9Z" fill="#00b2e2" stroke="#008acf" stroke-linecap="round" stroke-linejoin="round" stroke-miterlimit="10" stroke-width="0.447" stroke-dasharray="89.317 3.271 93.452 4.673"/>
      <path id="Path_986" data-name="Path 986" d="M229.4,46.9l-.6-.8a.978.978,0,0,1,.2-1.4l3.7-2.9a.978.978,0,0,1,1.4.2l.6.8a.978.978,0,0,1-.2,1.4l-3.7,2.9A1.075,1.075,0,0,1,229.4,46.9Z" fill="#00b2e2" stroke="#008acf" stroke-linecap="round" stroke-linejoin="round" stroke-miterlimit="10" stroke-width="0.447" stroke-dasharray="89.317 3.271 93.452 4.673"/>
      <path id="Path_987" data-name="Path 987" d="M202.5,67.8l-.3-.3c-.1-.2-.1-.5.1-.6l5.4-4.3c.2-.1.5-.1.6.1l.3.3c.1.2.1.5-.1.6l-5.4,4.3C202.9,68,202.6,68,202.5,67.8Z" fill="#00b2e2" stroke="#008acf" stroke-linecap="round" stroke-linejoin="round" stroke-miterlimit="10" stroke-width="0.447" stroke-dasharray="89.317 3.271 93.452 4.673"/>
    </g>
    <path id="Path_988" data-name="Path 988" d="M38.3,55.3a8.173,8.173,0,0,1,8.2-8.2,10.871,10.871,0,0,1,2.6.4l6.6-5.6a5.67,5.67,0,0,0-1.3-.8l1-3.9-2.1-.9-2.1,3.4c-.8-.2-1.7-.4-2.5-.6l-.5-4a10.869,10.869,0,0,0-1.8-.1h-.5l-.8,4a18.664,18.664,0,0,0-2.5.4l-1.9-3.6a19.452,19.452,0,0,0-2.2.8l.7,4A15.916,15.916,0,0,0,37,41.9l-3-2.7-1.8,1.5,2.1,3.5a8.961,8.961,0,0,0-1.5,1.9L29,44.7a19.832,19.832,0,0,0-1.1,2l3.2,2.5a15.457,15.457,0,0,0-.7,2.3l-4,.1c-.1.8-.2,1.5-.3,2.3L30,55v.2a16.352,16.352,0,0,0,.2,2.2l-3.7,1.5a9.766,9.766,0,0,0,.6,2.3l4-.4c.2.5.4.9.6,1.4l6.7-5.7A4.121,4.121,0,0,1,38.3,55.3Z" fill="#4dc9eb"/>
    <path id="Path_989" data-name="Path 989" d="M66.6,55.5v-.2a14.769,14.769,0,0,0-.1-2.1l-4-.4a11.364,11.364,0,0,0-.6-2.5l3.4-2.2L64.4,46l-3.9,1.1A10.092,10.092,0,0,0,59,45l2.4-3.3a12.1,12.1,0,0,0-1.6-1.6l-3.2,2.4-.9-.6L49,47.6a8.116,8.116,0,0,1,5.5,7.7,8.237,8.237,0,0,1-8.2,8.2,8.073,8.073,0,0,1-8-6.8l-6.7,5.7c.1.3.3.5.4.8L29.1,66a13.3,13.3,0,0,0,1.4,1.9l3.6-1.8a12.878,12.878,0,0,0,1.7,1.6l-1.7,3.7a13.735,13.735,0,0,0,2,1.3l2.7-3a8.488,8.488,0,0,0,2.2.9l-.3,4a18.916,18.916,0,0,0,2.3.5l1.5-3.8a12.1,12.1,0,0,0,1.9.1h.5l1.2,3.9c.8-.1,1.6-.2,2.3-.3V71a20.943,20.943,0,0,0,2.3-.8l2.5,3.2a12.81,12.81,0,0,0,2-1.1l-1.4-3.8c.7-.5,1.3-1,1.9-1.5l3.5,2.1,1.5-1.8-2.7-3a9.409,9.409,0,0,0,1.2-2.2l4,.7a14.161,14.161,0,0,0,.7-2.2l-3.6-1.8a10.074,10.074,0,0,0,.3-2.5Z" fill="#00b2e2"/>
    <g id="Group_201" data-name="Group 201">
      <circle id="Ellipse_111" data-name="Ellipse 111" cx="29.5" cy="29.5" r="29.5" transform="translate(106 0.7)" stroke-dasharray="44.659 8.932 89.317 4.466" stroke="#008acf" stroke-linecap="round" stroke-miterlimit="10" stroke-width="1.34" fill="#b3e8f6"/>
      <g id="Group_200" data-name="Group 200">
        <rect id="Rectangle_189" data-name="Rectangle 189" width="3.2" height="10.3" transform="translate(129.097 49.272) rotate(180)" fill="#00b2e2"/>
        <rect id="Rectangle_190" data-name="Rectangle 190" width="3.2" height="19.3" transform="translate(151.43 49.284) rotate(180)" fill="#80d9f1"/>
        <rect id="Rectangle_191" data-name="Rectangle 191" width="3.2" height="21.8" transform="translate(148.254 49.256) rotate(180)" fill="#00b2e2"/>
        <rect id="Rectangle_192" data-name="Rectangle 192" width="3.2" height="14.2" transform="translate(145.077 49.283) rotate(180)" fill="#80d9f1"/>
        <rect id="Rectangle_193" data-name="Rectangle 193" width="3.2" height="16" transform="translate(141.801 49.324) rotate(180)" fill="#00b2e2"/>
        <rect id="Rectangle_194" data-name="Rectangle 194" width="3.2" height="19.3" transform="translate(138.625 49.284) rotate(180)" fill="#80d9f1"/>
        <rect id="Rectangle_195" data-name="Rectangle 195" width="3.2" height="16" transform="translate(135.449 49.324) rotate(180)" fill="#00b2e2"/>
        <rect id="Rectangle_196" data-name="Rectangle 196" width="3.2" height="12.4" transform="translate(132.273 49.293) rotate(180)" fill="#80d9f1"/>
        <rect id="Rectangle_197" data-name="Rectangle 197" width="3.2" height="6.7" transform="translate(122.758 49.311) rotate(180)" fill="#00b2e2"/>
        <rect id="Rectangle_198" data-name="Rectangle 198" width="3.2" height="8" transform="translate(125.934 49.26) rotate(180)" fill="#80d9f1"/>
        <g id="Group_199" data-name="Group 199">
          <path id="Path_990" data-name="Path 990" d="M119.7,33.5l10.8-10.8L141,26.8l7.2-11.2" fill="none" stroke="#008acf" stroke-linecap="round" stroke-linejoin="round" stroke-miterlimit="10" stroke-width="1.34" stroke-dasharray="46.726 3.271 93.452 4.673"/>
          <path id="Path_991" data-name="Path 991" d="M149.8,12.6l-.1,2.7-.1,2.7-2.1-1.3-2.1-1.3,2.2-1.4Z" fill="#008acf"/>
        </g>
      </g>
    </g>
    <g id="Group_203" data-name="Group 203">
      <g id="Group_202" data-name="Group 202">
        <circle id="Ellipse_112" data-name="Ellipse 112" cx="25.2" cy="25.2" r="25.2" transform="translate(212.2 109.8)" stroke-dasharray="46.726 3.271 93.452 4.673" stroke="#008acf" stroke-linecap="round" stroke-miterlimit="10" stroke-width="0.934" fill="#80d9f1"/>
        <path id="Path_992" data-name="Path 992" d="M237.4,155.6A20.6,20.6,0,1,1,258,135,20.635,20.635,0,0,1,237.4,155.6Zm0-35.7A15.1,15.1,0,1,0,252.5,135,15.151,15.151,0,0,0,237.4,119.9Z" fill="#00a2da"/>
        <circle id="Ellipse_113" data-name="Ellipse 113" cx="9.9" cy="9.9" r="9.9" transform="translate(227.5 125.1)" fill="#b3e8f6"/>
      </g>
      <path id="Path_993" data-name="Path 993" d="M268,110.9l-.4,5.3,5,1.8-7.1,4.4-5-1.8.5-5.2Z" fill="#b3e8f6" stroke="#008acf" stroke-miterlimit="10" stroke-width="0.447"/>
      <path id="Path_994" data-name="Path 994" d="M237.6,135.6l-.5-.7,33-20.8.4.7Z" fill="#008acf"/>
    </g>
    <g id="Group_206" data-name="Group 206">
      <g id="Group_205" data-name="Group 205">
        <g id="Group_204" data-name="Group 204">
          <path id="Path_995" data-name="Path 995" d="M.6,112.8l1,5.3,1.1,5.3L6.2,121l3.5-2.4-4.6-2.9Z" fill="#80d9f1"/>
          <path id="Path_996" data-name="Path 996" d="M.6,112.8,6.2,121h0l3.5-2.4-4.6-2.9Z" fill="#4dc9eb"/>
          <path id="Path_997" data-name="Path 997" d="M.6,112.8l.8,4,1.3-.9L4,115Z" fill="#008acf"/>
          <path id="Path_998" data-name="Path 998" d="M30.4,151.3l-4.4,3a1.963,1.963,0,0,0-.1,2.7l2.4,3.5a2.009,2.009,0,0,0,2.5.9l4.4-3a1.963,1.963,0,0,0,.1-2.7l-2.4-3.5A1.884,1.884,0,0,0,30.4,151.3Z" fill="#00a2da"/>
          <path id="Path_999" data-name="Path 999" d="M9.7,118.6l-2.4,1.6,23.3,33.7,2.4-1.6Z" fill="#4dc9eb"/>
          <path id="Path_1000" data-name="Path 1000" d="M7.2,120.1l-4.5,3.1,23.4,33.6,4.4-3Z" fill="#b3e8f6"/>
          <path id="Path_1001" data-name="Path 1001" d="M32.7,151.8l-7.1,4.8.6.9,7.1-4.9Z" fill="#008acf"/>
        </g>
        <line id="Line_30" data-name="Line 30" x2="23.1" y2="33.4" transform="translate(7.4 120.2)" fill="none" stroke="#008acf" stroke-miterlimit="10" stroke-width="1.13" stroke-dasharray="14.896 0.993 9.931 0.993 1.986 0.993"/>
        <line id="Line_31" data-name="Line 31" x2="23.3" y2="33.7" transform="translate(5 121.8)" fill="none" stroke="#008acf" stroke-miterlimit="10" stroke-width="1.13" stroke-dasharray="9.931 0.993 14.896 1.986 9.931 0.993"/>
        <line id="Line_32" data-name="Line 32" y1="4.9" x2="7" transform="translate(2.7 118.5)" fill="none" stroke="#0d2c40" stroke-miterlimit="10" stroke-width="0.745"/>
        <path id="Path_1002" data-name="Path 1002" d="M9.7,118.6l-4.6-2.9L3,114.3.6,112.8h0l.5,2.8h0l.5,2.5,1.1,5.3L6.2,121Z" fill="none" stroke="#008acf" stroke-linejoin="round" stroke-miterlimit="10" stroke-width="1.13"/>
        <path id="Path_1003" data-name="Path 1003" d="M7.4,120.2,5,121.8l-2.3,1.6L26,157.1l.2.4h0l2.1,3a2.009,2.009,0,0,0,2.5.9l4.4-3a1.963,1.963,0,0,0,.1-2.7l-2.4-3.5h0L9.7,118.6Z" fill="none" stroke="#008acf" stroke-linejoin="round" stroke-miterlimit="10" stroke-width="1.13"/>
      </g>
      <path id="Path_1004" data-name="Path 1004" d="M35.8,126.8l-8.6-7.6,8.4-9.6a11.88,11.88,0,0,0-12.8,17.6L1.2,151.9a1.694,1.694,0,0,0,.1,2.3l3.2,2.9a1.694,1.694,0,0,0,2.3-.1l21.6-24.6a11.912,11.912,0,0,0,15.8-15Z" fill="#4dc9eb" stroke="#008acf" stroke-linejoin="round" stroke-miterlimit="10" stroke-width="1.13" stroke-dasharray="89.317 3.271 93.452 4.673"/>
    </g>
    <path id="Path_1005" data-name="Path 1005" d="M66.6,55.5v-.2a14.769,14.769,0,0,0-.1-2.1l-4-.4a11.364,11.364,0,0,0-.6-2.5l3.4-2.2L64.4,46l-3.9,1.1A10.092,10.092,0,0,0,59,45l2.4-3.3a12.1,12.1,0,0,0-1.6-1.6l-3.2,2.4c-.7-.5-1.4-1-2.1-1.4l1-3.9-2.1-.9-2.1,3.4c-.8-.2-1.7-.4-2.5-.6l-.5-4a10.869,10.869,0,0,0-1.8-.1H46l-.8,4a18.664,18.664,0,0,0-2.5.4l-1.9-3.6a19.452,19.452,0,0,0-2.2.8l.7,4a15.916,15.916,0,0,0-2.2,1.3l-3-2.7-1.8,1.5,2.1,3.5a8.961,8.961,0,0,0-1.5,1.9l-3.8-1.4a19.832,19.832,0,0,0-1.1,2l3.2,2.5a15.457,15.457,0,0,0-.7,2.3l-4,.1c-.1.8-.2,1.5-.3,2.3L30.1,55v.2a16.352,16.352,0,0,0,.2,2.2l-3.7,1.5a9.766,9.766,0,0,0,.6,2.3l4-.4a21.4,21.4,0,0,0,1,2.2l-2.9,2.8a13.3,13.3,0,0,0,1.4,1.9l3.6-1.8A12.878,12.878,0,0,0,36,67.5l-1.7,3.7a13.735,13.735,0,0,0,2,1.3l2.7-3a8.488,8.488,0,0,0,2.2.9l-.3,4a18.916,18.916,0,0,0,2.3.5l1.5-3.8a12.1,12.1,0,0,0,1.9.1h.5l1.2,3.9c.8-.1,1.6-.2,2.3-.3v-4a20.943,20.943,0,0,0,2.3-.8l2.5,3.2a12.81,12.81,0,0,0,2-1.1L56,68.3c.7-.5,1.3-1,1.9-1.5l3.5,2.1,1.5-1.8-2.7-3a9.409,9.409,0,0,0,1.2-2.2l4,.7a14.161,14.161,0,0,0,.7-2.2l-3.6-1.8a10.074,10.074,0,0,0,.3-2.5ZM46.4,63.4a8.2,8.2,0,1,1,8.2-8.2A8.173,8.173,0,0,1,46.4,63.4Z" fill="none" stroke="#008acf" stroke-linejoin="round" stroke-miterlimit="10" stroke-width="0.893"/>
    <g id="Group_207" data-name="Group 207">
      <path id="Path_1006" data-name="Path 1006" d="M68.9,70.9A4.055,4.055,0,0,1,73,66.8a1.95,1.95,0,0,1,.8.1l3.3-3-.1-.1.5-2c-.3-.2-.7-.3-1-.5L75.4,63c-.4-.1-.8-.2-1.3-.3l-.2-2H72.8l-.4,2a6.882,6.882,0,0,0-1.3.2l-.9-1.8a4.874,4.874,0,0,0-1.1.4l.4,2c-.4.2-.7.4-1.1.6l-1.5-1.3a6.47,6.47,0,0,0-.9.8l1.1,1.7a8.745,8.745,0,0,0-.8,1l-1.9-.7a4.671,4.671,0,0,0-.5,1l1.6,1.2c-.1.4-.3.8-.4,1.2h-2a4.869,4.869,0,0,0-.1,1.2l2,.6v.1a4.1,4.1,0,0,0,.1,1.1l-1.9.8c.1.4.2.8.3,1.1l2-.2.3.6,3.3-3A.4.4,0,0,1,68.9,70.9Z" fill="#4dc9eb"/>
      <path id="Path_1007" data-name="Path 1007" d="M83.1,71h0V69.9l-2-.2-.3-1.2,1.7-1.1a3.128,3.128,0,0,0-.5-1l-2,.5c-.2-.4-.5-.7-.7-1.1l1.2-1.6-.8-.8-1.6,1.2-.9-.6-3.3,3a4.088,4.088,0,0,1-.8,8.1A4.193,4.193,0,0,1,69,71.5l-3.3,3c.1.2.1.3.2.5l-1.5,1.4a6.071,6.071,0,0,0,.7,1l1.8-.9a6.034,6.034,0,0,0,.8.8l-.9,1.8a8.65,8.65,0,0,0,1,.7l1.4-1.5a11.731,11.731,0,0,0,1.1.5l-.1,2,1.2.3.7-1.9c.3,0,.6.1,1,.1h.2l.6,1.9a5.019,5.019,0,0,0,1.2-.2V79a3.582,3.582,0,0,0,1.1-.4l1.3,1.6a8.794,8.794,0,0,0,1-.6l-.7-1.9a6.469,6.469,0,0,0,.9-.8l1.8,1a5.5,5.5,0,0,0,.7-.9l-1.4-1.5a10.908,10.908,0,0,0,.6-1.1l2,.3c.1-.4.3-.7.4-1.1l-1.8-1c.1-.4.1-.8.2-1.3Z" fill="#80d9f1"/>
      <path id="Path_1008" data-name="Path 1008" d="M83.1,71h0V69.9l-2-.2-.3-1.2,1.7-1.1a3.128,3.128,0,0,0-.5-1l-2,.5c-.2-.4-.5-.7-.7-1.1l1.2-1.6-.8-.8-1.6,1.2a4.129,4.129,0,0,0-1.1-.7l.5-2c-.3-.2-.7-.3-1-.5l-1.1,1.7c-.4-.1-.8-.2-1.3-.3l-.2-2H72.8l-.4,2a6.882,6.882,0,0,0-1.3.2l-.9-1.8a4.874,4.874,0,0,0-1.1.4l.4,2c-.4.2-.7.4-1.1.6l-1.5-1.3a6.47,6.47,0,0,0-.9.8l1.1,1.7a8.745,8.745,0,0,0-.8,1l-1.9-.7a4.671,4.671,0,0,0-.5,1l1.6,1.2c-.1.4-.3.8-.4,1.2h-2a4.869,4.869,0,0,0-.1,1.2l2,.6V71a4.1,4.1,0,0,0,.1,1.1l-1.9.8c.1.4.2.8.3,1.1l2-.2a5.359,5.359,0,0,0,.5,1.1l-1.5,1.4a6.071,6.071,0,0,0,.7,1l1.8-.9a6.034,6.034,0,0,0,.8.8L66.9,79a8.65,8.65,0,0,0,1,.7l1.4-1.5a11.731,11.731,0,0,0,1.1.5l-.1,2,1.2.3.7-1.9c.3,0,.6.1,1,.1h.2l.6,1.9a5.019,5.019,0,0,0,1.2-.2v-2a3.582,3.582,0,0,0,1.1-.4l1.3,1.6a8.794,8.794,0,0,0,1-.6l-.7-1.9a6.469,6.469,0,0,0,.9-.8l1.8,1a5.5,5.5,0,0,0,.7-.9l-1.4-1.5a10.908,10.908,0,0,0,.6-1.1l2,.3c.1-.4.3-.7.4-1.1L81,72.6c.1-.4.1-.8.2-1.3ZM73,74.9a4.1,4.1,0,1,1,4.1-4.1A4.055,4.055,0,0,1,73,74.9Z" fill="none" stroke="#008acf" stroke-linecap="round" stroke-linejoin="round" stroke-miterlimit="10" stroke-width="0.67"/>
    </g>
    <line id="Line_33" data-name="Line 33" y1="4.9" x2="11.5" transform="translate(192.2 59.3)" stroke-dasharray="8.932 3.271 93.452 4.673" stroke="#b3e8f6" stroke-linecap="round" stroke-linejoin="round" stroke-miterlimit="10" stroke-width="0.893" fill="none"/>
  </g>
</svg>
