<svg xmlns="http://www.w3.org/2000/svg" viewBox="0 0 38.506 38.506">
  <defs>
    <style>
      .cls-1, .cls-2 {
        fill: #3b4340;
      }

      .cls-2 {
        fill-rule: evenodd;
      }
    </style>
  </defs>
  <g id="Group" transform="translate(-4.579 13.729) rotate(-45)">
    <path id="Shape" class="cls-1" d="M17.442,27.53a5.492,5.492,0,0,1-2.9,1.439,18.266,18.266,0,0,1-3.283.309c.311-.405.054-.706-.156-1.075,3.133-.069,4.928-.439,5.946-1.875a2.749,2.749,0,0,0,.228.932A1.11,1.11,0,0,0,17.442,27.53Zm1.894-6.446a.863.863,0,0,0-.47-.093s-.447-.2-.6.044l-.01.015c.055-1.093.073-2.35.073-3.8C18.332,7.228,13.6,1.078,9.7,1.078S1.078,7.228,1.078,17.253c0,1.391.017,2.608.067,3.671a1.583,1.583,0,0,0-.561-.47.633.633,0,0,0-.538-.021C.014,19.5,0,18.449,0,17.253a24.357,24.357,0,0,1,3-12.4C4.82,1.819,7.28,0,9.7,0s4.885,1.819,6.7,4.853a24.357,24.357,0,0,1,3,12.4C19.41,18.736,19.389,20,19.336,21.084Zm-10.991,8.2a18.924,18.924,0,0,1-3.474-.313A5.364,5.364,0,0,1,1.808,27.36a3.831,3.831,0,0,0,.282-.291,1.049,1.049,0,0,0,.29-.717c1.009,1.4,2.772,1.774,5.821,1.849a.879.879,0,0,0,.06.66A1.362,1.362,0,0,0,8.344,29.282Z" transform="translate(3.241 3.235)"/>
    <path id="Shape-2" data-name="Shape" class="cls-1" d="M3.415,6.829A3.415,3.415,0,1,1,6.829,3.415,3.415,3.415,0,0,1,3.415,6.829Zm0-1.078A2.336,2.336,0,1,0,1.078,3.415,2.336,2.336,0,0,0,3.415,5.751Z" transform="translate(9.531 11.322)"/>
    <path id="Rectangle-602" class="cls-2" d="M0,.541a.539.539,0,1,1,1.078,0V4.132A.539.539,0,1,1,0,4.132Zm7.908,0a.539.539,0,1,1,1.078,0V4.132a.539.539,0,1,1-1.078,0Zm-3.954.9a.539.539,0,1,1,1.078,0V6.828a.539.539,0,1,1-1.078,0Z" transform="translate(8.453 36.124)"/>
    <rect id="Rectangle-601" class="cls-1" width="1.078" height="4.313" rx="0.539" transform="translate(12.406 0)"/>
    <path id="Shape-3" data-name="Shape" class="cls-1" d="M1.977,10.064h0A1.577,1.577,0,0,1,.646,9.315,3.214,3.214,0,0,1,.212,8.176,15.226,15.226,0,0,1,0,5.212,18.1,18.1,0,0,1,.207,2.094,3.96,3.96,0,0,1,.6.877,1.552,1.552,0,0,1,1.977,0,1.552,1.552,0,0,1,3.352.877a3.96,3.96,0,0,1,.4,1.216,18.1,18.1,0,0,1,.207,3.118,15.225,15.225,0,0,1-.212,2.964,3.214,3.214,0,0,1-.434,1.139,1.577,1.577,0,0,1-1.331.749Zm0-1.078c.695,0,.9-1.491.9-3.774s-.2-4.134-.9-4.134-.9,1.851-.9,4.134.2,3.774.9,3.774Z" transform="translate(10.969 25.7)"/>
    <path id="Shape-4" data-name="Shape" class="cls-1" d="M4.335,9.057h0C3.213,10.1,2.52,10.551,1.655,10.439A1.728,1.728,0,0,1,.252,9.2,5.992,5.992,0,0,1,0,7.224,11.333,11.333,0,0,1,1.1,2.578C1.828,1.023,2.629,0,3.6,0A2,2,0,0,1,5.479,1.331a8.8,8.8,0,0,1,.457,3.342c0,.345.01,1.433.008,1.64a3.2,3.2,0,0,1-.159,1.142,2.163,2.163,0,0,1-.653.9s-.571.492-.8.7ZM3.6,8.267C5.056,6.913,4.858,7.65,4.858,4.673S4.295,1.078,3.6,1.078,1.078,4.246,1.078,7.224,2.144,9.622,3.6,8.267Z" transform="translate(0 23.004)"/>
    <path id="Shape-5" data-name="Shape" class="cls-1" d="M1.61,9.057h0c-.227-.211-.8-.7-.8-.7a2.163,2.163,0,0,1-.653-.9A3.2,3.2,0,0,1,0,6.312c0-.207.008-1.294.008-1.64A8.8,8.8,0,0,1,.465,1.331,2,2,0,0,1,2.345,0c.971,0,1.772,1.023,2.5,2.578a11.333,11.333,0,0,1,1.1,4.646A5.992,5.992,0,0,1,5.693,9.2a1.728,1.728,0,0,1-1.4,1.243c-.865.112-1.558-.339-2.68-1.383Zm.735-.789h0C3.8,9.622,4.867,10.2,4.867,7.224S3.04,1.078,2.345,1.078,1.087,1.7,1.087,4.673s-.2,2.24,1.258,3.594Z" transform="translate(19.897 23.64)"/>
  </g>
</svg>
